<svg width="41" height="40" viewBox="0 0 41 40" fill="none" xmlns="http://www.w3.org/2000/svg">
<g clip-path="url(#clip0_2551_1479)">
<path d="M30.8365 14.1661C30.8365 15.2712 30.3976 16.331 29.6161 17.1124C28.8347 17.8938 27.7749 18.3328 26.6699 18.3328C25.5648 18.3328 24.505 17.8938 23.7236 17.1124C22.9422 16.331 22.5032 15.2712 22.5032 14.1661C22.5032 13.0611 22.9422 12.0013 23.7236 11.2199C24.505 10.4385 25.5648 9.99948 26.6699 9.99948C27.7749 9.99948 28.8347 10.4385 29.6161 11.2199C30.3976 12.0013 30.8365 13.0611 30.8365 14.1661ZM30.8265 25.6095C30.735 28.2576 30.0739 30.8549 28.8882 33.2245C27.7958 35.2904 26.1554 37.0156 24.1471 38.2107C22.1388 39.4058 19.8401 40.0247 17.5032 39.9995H15.8365V30.8328C15.8291 29.288 15.2121 27.8086 14.1198 26.7162C13.0274 25.6239 11.548 25.0069 10.0032 24.9995H0.836536V23.3328C0.811306 20.9959 1.43019 18.6973 2.6253 16.6889C3.82042 14.6806 5.54558 13.0403 7.61154 11.9478C9.98115 10.7621 12.5784 10.101 15.2265 10.0095C17.6546 6.87321 20.7728 4.3387 24.339 2.60269C27.9053 0.866691 31.8236 -0.0240982 35.7899 -0.000520436C36.4498 -0.00469079 37.1042 0.121451 37.7153 0.370673C38.3264 0.619894 38.8823 0.987294 39.3512 1.45181C39.82 1.91632 40.1926 2.46881 40.4475 3.07759C40.7024 3.68638 40.8346 4.33949 40.8365 4.99948C40.8648 8.97317 39.9763 12.8999 38.2402 16.4743C36.5041 20.0488 33.9672 23.1749 30.8265 25.6095ZM4.30987 21.6661H8.07987C9.31761 18.9095 10.7716 16.2551 12.4282 13.7278C11.2776 13.9955 10.1626 14.3983 9.10654 14.9278C7.83643 15.5985 6.74104 16.5573 5.90809 17.7274C5.07514 18.8975 4.52779 20.2465 4.30987 21.6661ZM27.1082 28.4078C24.581 30.0644 21.9266 31.5184 19.1699 32.7561V36.5261C20.5896 36.3082 21.9385 35.7609 23.1086 34.9279C24.2787 34.095 25.2375 32.9996 25.9082 31.7295C26.4377 30.6734 26.8405 29.5585 27.1082 28.4078ZM37.5032 4.95281C37.4911 4.51892 37.3101 4.10689 36.9989 3.80436C36.6876 3.50182 36.2706 3.33264 35.8365 3.33281C27.2365 3.57781 21.4199 6.87281 15.8065 14.7028C14.2401 16.9582 12.8627 19.339 11.6882 21.8211C13.5081 22.1601 15.1827 23.0421 16.4916 24.351C17.8006 25.66 18.6826 27.3346 19.0215 29.1545C21.5037 27.98 23.8845 26.6026 26.1399 25.0361C33.9632 19.4161 37.2582 13.5995 37.5032 4.95281ZM11.0399 29.7978C11.9712 30.7387 12.4935 32.009 12.4935 33.3328C12.4935 34.6566 11.9712 35.927 11.0399 36.8678C9.5282 38.3778 5.0032 39.3095 3.12654 39.6411L0.783203 40.0528L1.19487 37.7095C1.5282 35.8328 2.4582 31.3078 3.9682 29.7961C4.92112 28.8872 6.1875 28.3803 7.50437 28.3806C8.82124 28.3809 10.0874 28.8885 11.0399 29.7978ZM9.16987 33.3328C9.17046 33.1139 9.12761 32.897 9.04378 32.6947C8.95996 32.4924 8.83683 32.3088 8.68154 32.1545C8.36899 31.842 7.94514 31.6665 7.5032 31.6665C7.06126 31.6665 6.63742 31.842 6.32487 32.1545C5.68944 33.3016 5.24316 34.5436 5.0032 35.8328C6.29288 35.5918 7.53541 35.145 8.6832 34.5095C8.838 34.3552 8.9607 34.1718 9.04423 33.9698C9.12776 33.7679 9.17046 33.5514 9.16987 33.3328Z" fill="#7552F3"/>
</g>
<defs>
<clipPath id="clip0_2551_1479">
<rect width="40" height="40" fill="white" transform="translate(0.833984)"/>
</clipPath>
</defs>
</svg>
