<svg width="48" height="48" viewBox="0 0 48 48" fill="none" xmlns="http://www.w3.org/2000/svg">
<rect width="48" height="48" rx="9.6" fill="white" fill-opacity="0.88"/>
<path d="M36 17.9085L24 10.8008L12 17.9085M36 17.9085L24 25.0162M36 17.9085V30.0931L24 37.2008M12 17.9085L24 25.0162M12 17.9085V30.0931L24 37.2008M24 25.0162V37.2008" stroke="#7552F3" stroke-width="2.4" stroke-linecap="round" stroke-linejoin="round"/>
</svg>
