<svg width="16" height="16" viewBox="0 0 16 16" fill="none" xmlns="http://www.w3.org/2000/svg">
<path d="M8.00065 10.6668V8.00016M8.00065 5.3335H8.00732M14.6673 8.00016C14.6673 11.682 11.6825 14.6668 8.00065 14.6668C4.31875 14.6668 1.33398 11.682 1.33398 8.00016C1.33398 4.31826 4.31875 1.3335 8.00065 1.3335C11.6825 1.3335 14.6673 4.31826 14.6673 8.00016Z" stroke="#607D8B" stroke-width="1.4" stroke-linecap="round" stroke-linejoin="round"/>
</svg>
