<svg width="32" height="32" viewBox="0 0 32 32" fill="none" xmlns="http://www.w3.org/2000/svg">
<path d="M12.7074 21.4958C12.3586 20.6358 11.7217 19.9239 10.9057 19.482C10.0897 19.0401 9.14541 18.8956 8.23461 19.0734C7.32381 19.2511 6.50315 19.74 5.91319 20.4563C5.32322 21.1726 5.00067 22.0718 5.00078 22.9998C5.00078 23.4106 4.91641 23.817 4.75289 24.1939C4.58937 24.5708 4.35019 24.91 4.05017 25.1907C3.75016 25.4713 3.3957 25.6873 3.00877 25.8254C2.62184 25.9634 2.21068 26.0205 1.80078 25.9931C2.46004 27.1384 3.47896 28.034 4.69935 28.5408C5.91973 29.0477 7.27332 29.1375 8.54998 28.7963C9.82664 28.4551 10.9549 27.702 11.7597 26.6539C12.5645 25.6057 13.0008 24.3212 13.0008 22.9998C13.0008 22.4678 12.8968 21.9598 12.7074 21.4958ZM12.7074 21.4958C14.2928 20.9556 15.809 20.2306 17.2248 19.3358M10.5008 19.3024C11.0411 17.7137 11.767 16.1943 12.6634 14.7758M17.2234 19.3358C19.7519 17.7383 21.9161 15.6268 23.5754 13.1384L28.7434 5.38644C28.9414 5.09119 29.0308 4.73636 28.9962 4.38256C28.9617 4.02876 28.8054 3.69793 28.554 3.44657C28.3026 3.1952 27.9718 3.03889 27.618 3.00434C27.2642 2.96979 26.9094 3.05913 26.6141 3.25711L18.8621 8.42644C16.3735 10.0853 14.2615 12.249 12.6634 14.7771C14.6926 15.6844 16.3161 17.3079 17.2234 19.3371" stroke="#7552F3" stroke-width="2.4" stroke-linecap="round" stroke-linejoin="round"/>
</svg>
