<svg width="16" height="16" viewBox="0 0 16 16" fill="none" xmlns="http://www.w3.org/2000/svg">
<path d="M9.36711 4.00016C10.0182 4.12721 10.6166 4.44567 11.0858 4.91479C11.5549 5.3839 11.8734 5.98234 12.0004 6.6335M9.36711 1.3335C10.7199 1.48379 11.9815 2.08961 12.9446 3.0515C13.9077 4.01339 14.5151 5.27417 14.6671 6.62683M6.81838 9.24223C6.01735 8.44116 5.38483 7.53536 4.92083 6.56898C4.88092 6.48586 4.86097 6.44429 4.84563 6.3917C4.79115 6.2048 4.83029 5.97529 4.94363 5.817C4.97552 5.77246 5.01363 5.73436 5.08983 5.65815C5.3229 5.42508 5.43944 5.30854 5.51563 5.19136C5.80296 4.74943 5.80296 4.17971 5.51563 3.73778C5.43944 3.6206 5.3229 3.50406 5.08983 3.27099L4.95992 3.14108C4.60563 2.78678 4.42847 2.60964 4.23822 2.51341C3.85985 2.32203 3.41301 2.32203 3.03464 2.51341C2.84438 2.60964 2.66723 2.78678 2.31294 3.14108L2.20785 3.24617C1.85476 3.59925 1.67822 3.77579 1.54339 4.01582C1.39378 4.28215 1.2862 4.69581 1.28712 5.0013C1.28793 5.27659 1.34134 5.46474 1.44814 5.84104C2.02212 7.8633 3.1051 9.77156 4.69709 11.3635C6.28907 12.9555 8.19731 14.0385 10.2196 14.6125C10.5958 14.7193 10.784 14.7727 11.0593 14.7735C11.3648 14.7744 11.7784 14.6668 12.0448 14.5172C12.2848 14.3824 12.4614 14.2058 12.8144 13.8528L12.9195 13.7477C13.2738 13.3934 13.451 13.2162 13.5472 13.026C13.7386 12.6476 13.7386 12.2008 13.5472 11.8224C13.451 11.6322 13.2738 11.455 12.9195 11.1007L12.7896 10.9708C12.5566 10.7377 12.44 10.6212 12.3228 10.545C11.8809 10.2576 11.3112 10.2576 10.8692 10.545C10.752 10.6212 10.6355 10.7377 10.4024 10.9708C10.3262 11.047 10.2882 11.0851 10.2436 11.117C10.0853 11.2304 9.85585 11.2695 9.66891 11.215C9.61631 11.1996 9.57478 11.1797 9.49165 11.1398C8.52525 10.6758 7.61945 10.0432 6.81838 9.24223Z" stroke="#607D8B" stroke-width="1.4" stroke-linecap="round" stroke-linejoin="round"/>
</svg>
