<svg xmlns="http://www.w3.org/2000/svg" width="310.289" height="307.042" viewBox="0 0 310.289 307.042">
  <g id="Group_3445" data-name="Group 3445" transform="translate(-194.676 -796.223)">
    <g id="Group_3444" data-name="Group 3444">
      <path id="Path_8568" data-name="Path 8568" d="M333.215,970.828a15.084,15.084,0,0,0-.266,2.723v71.5h34.125v-71.5a14.154,14.154,0,0,0-.265-2.723,45.253,45.253,0,0,0,1.226-83.523v41.511H331.988V887.3a45.253,45.253,0,0,0,1.227,83.523Z" fill="#fff" stroke="#003189" stroke-miterlimit="10" stroke-width="7.718"/>
      <path id="Path_8569" data-name="Path 8569" d="M355.277,1045.051V982.059c0-2.465-2.441-4.461-5.453-4.461s-5.453,2-5.453,4.461v62.992Z" fill="#fff" stroke="#003189" stroke-miterlimit="10" stroke-width="7.718"/>
      <path id="Path_8570" data-name="Path 8570" d="M383.34,931.078a33.13,33.13,0,0,1-33.9,32.344" fill="none" stroke="#003189" stroke-miterlimit="10" stroke-width="7.718"/>
    </g>
    <path id="Path_8571" data-name="Path 8571" d="M475.594,951.336c0-3.82-.2-7.59-.535-11.32l25.2-6.594-11.3-43.145-25.684,6.711a125.985,125.985,0,0,0-20.824-30.726l16.477-21.36-35.309-27.254-16.691,21.629a124.716,124.716,0,0,0-34.8-11.707V800.082h-44.6V827.57a124.741,124.741,0,0,0-33.179,10.883l-16.379-21.867-35.715,26.746,16.207,21.617a125.575,125.575,0,0,0-16.316,21.379l-25.055-9.23-15.414,41.859,24.574,9.051a125.736,125.736,0,0,0-2.2,23.328c0,2.754.125,5.48.3,8.2l-24.953,6.524,11.3,43.164,24.4-6.4a125.846,125.846,0,0,0,20.8,32.1l-15.172,19.652,35.308,27.262,14.942-19.352a125,125,0,0,0,36.554,12.59v24.324h44.6v-24.324a124.777,124.777,0,0,0,34.9-11.75l14.657,19.57,35.7-26.742-14.867-19.847a125.891,125.891,0,0,0,16.488-22.6l23.555,8.664,15.414-41.848-24.039-8.855A127.024,127.024,0,0,0,475.594,951.336Zm-125.77,84.051a85.644,85.644,0,1,1,85.637-85.645A85.647,85.647,0,0,1,349.824,1035.387Z" fill="#44c3f4" stroke="#003189" stroke-miterlimit="10" stroke-width="7.718"/>
  </g>
</svg>
