<svg width="12" height="13" viewBox="0 0 12 13" fill="none" xmlns="http://www.w3.org/2000/svg">
<path d="M1 11.5L11 1.5M11 1.5H3.5M11 1.5V9" stroke="#7552F3" stroke-width="1.6" stroke-linecap="round" stroke-linejoin="round"/>
</svg>
