<svg width="49" height="48" viewBox="0 0 49 48" fill="none" xmlns="http://www.w3.org/2000/svg">
<rect x="0.5" y="48.0005" width="48" height="48" rx="24" transform="rotate(-90 0.5 48.0005)" fill="#7552F3"/>
<path d="M24.5 36.0005L24.5 12.0005" stroke="white" stroke-width="1.5"/>
<path d="M24.5 12.0005C24.25 13.5005 22.85 16.6505 19.25 17.2505" stroke="white" stroke-width="1.5"/>
<path d="M24.5 12.0005C24.75 13.5005 26.15 16.6505 29.75 17.2505" stroke="white" stroke-width="1.5"/>
</svg>
