<svg xmlns="http://www.w3.org/2000/svg" width="123.835" height="106.224" viewBox="0 0 123.835 106.224">
  <g id="Group_3338" data-name="Group 3338" transform="translate(-74.468 -1684.276)">
    <g id="Group_3261" data-name="Group 3261" transform="translate(83.451 1684.775)">
      <path id="Path_8324" data-name="Path 8324" d="M296.3,167.985V157.564a1.783,1.783,0,0,0-1.667-1.78l-4.619-.3a27.6,27.6,0,0,0-2.7-6.5l3.055-3.482a1.783,1.783,0,0,0-.079-2.437l-7.369-7.369a1.783,1.783,0,0,0-2.437-.079l-3.482,3.055a27.6,27.6,0,0,0-6.5-2.7l-.3-4.619a1.783,1.783,0,0,0-1.78-1.667H258a1.783,1.783,0,0,0-1.78,1.667l-.3,4.619a27.6,27.6,0,0,0-6.5,2.7l-3.482-3.055a1.783,1.783,0,0,0-2.437.079l-7.369,7.369a1.783,1.783,0,0,0-.079,2.437l3.055,3.482a27.6,27.6,0,0,0-2.7,6.5l-4.619.3a1.783,1.783,0,0,0-1.667,1.78v10.422a1.783,1.783,0,0,0,1.667,1.78l4.619.3a27.6,27.6,0,0,0,2.7,6.5l-3.055,3.482a1.783,1.783,0,0,0,.079,2.437l7.369,7.369a1.784,1.784,0,0,0,2.437.08l3.482-3.056a27.6,27.6,0,0,0,6.5,2.7l.3,4.619a1.783,1.783,0,0,0,1.78,1.667h10.422a1.783,1.783,0,0,0,1.78-1.667l.3-4.619a27.6,27.6,0,0,0,6.5-2.7l3.482,3.056a1.784,1.784,0,0,0,2.437-.08l7.369-7.369a1.783,1.783,0,0,0,.079-2.437l-3.055-3.482a27.6,27.6,0,0,0,2.7-6.5l4.619-.3A1.783,1.783,0,0,0,296.3,167.985Zm-31.413,11.138a16.435,16.435,0,1,1,14.672-14.673A16.439,16.439,0,0,1,264.889,179.123Z" transform="translate(-183.657 -129.684)" fill="none" stroke="#8ab7ce" stroke-miterlimit="10" stroke-width="0.998"/>
      <path id="Path_8325" data-name="Path 8325" d="M139.6,229.316V222.2a1.218,1.218,0,0,0-1.138-1.215l-3.155-.206a18.842,18.842,0,0,0-1.842-4.441l2.087-2.378a1.218,1.218,0,0,0-.054-1.665l-5.033-5.033a1.218,1.218,0,0,0-1.665-.054l-2.378,2.087a18.85,18.85,0,0,0-4.441-1.842l-.206-3.154a1.218,1.218,0,0,0-1.215-1.139h-7.118a1.218,1.218,0,0,0-1.215,1.139l-.206,3.154a18.856,18.856,0,0,0-4.441,1.842l-2.378-2.087a1.218,1.218,0,0,0-1.665.054L98.5,212.293a1.218,1.218,0,0,0-.054,1.665l2.087,2.378a18.857,18.857,0,0,0-1.842,4.441l-3.154.206A1.218,1.218,0,0,0,94.4,222.2v7.118a1.218,1.218,0,0,0,1.139,1.215l3.154.206a18.851,18.851,0,0,0,1.842,4.441l-2.087,2.378a1.218,1.218,0,0,0,.054,1.665l5.033,5.033a1.218,1.218,0,0,0,1.665.054l2.378-2.087a18.841,18.841,0,0,0,4.441,1.842l.206,3.155a1.218,1.218,0,0,0,1.215,1.139h7.118a1.218,1.218,0,0,0,1.215-1.139l.206-3.155a18.836,18.836,0,0,0,4.441-1.842l2.378,2.087a1.218,1.218,0,0,0,1.665-.054l5.033-5.033a1.218,1.218,0,0,0,.054-1.665l-2.087-2.378a18.837,18.837,0,0,0,1.842-4.441l3.155-.206A1.218,1.218,0,0,0,139.6,229.316Zm-21.454,7.607a11.224,11.224,0,1,1,10.02-10.021A11.227,11.227,0,0,1,118.146,236.922Z" transform="translate(-94.401 -178.003)" fill="none" stroke="#8ab7ce" stroke-miterlimit="10" stroke-width="0.998"/>
    </g>
    <path id="Path_8326" data-name="Path 8326" d="M202.832,404.064H84.636l23.016-17.927h72.163Z" transform="translate(-4.529 1386.436)" fill="#d7e8f2"/>
    <g id="Group_3277" data-name="Group 3277" transform="translate(75 1719.705)">
      <rect id="Rectangle_757" data-name="Rectangle 757" width="72.163" height="41.93" transform="translate(28.124 0)" fill="#a3caef"/>
      <g id="Group_3276" data-name="Group 3276" transform="translate(0 1.236)">
        <g id="Group_3273" data-name="Group 3273" transform="translate(30.251)">
          <rect id="Rectangle_758" data-name="Rectangle 758" width="67.909" height="39.458" fill="#4e6d84"/>
          <g id="Group_3272" data-name="Group 3272" transform="translate(3.624 3.877)">
            <g id="Group_3262" data-name="Group 3262" transform="translate(0 3.572)">
              <path id="Path_8327" data-name="Path 8327" d="M184.462,258.214h-15.23a.568.568,0,0,1-.566-.566h0a.568.568,0,0,1,.566-.566h15.23a.568.568,0,0,1,.566.566h0A.568.568,0,0,1,184.462,258.214Z" transform="translate(-168.665 -257.081)" fill="#66e29e"/>
              <path id="Path_8328" data-name="Path 8328" d="M236.8,258.214h-15.23a.568.568,0,0,1-.566-.566h0a.568.568,0,0,1,.566-.566H236.8a.568.568,0,0,1,.566.566h0A.568.568,0,0,1,236.8,258.214Z" transform="translate(-203.083 -257.081)" fill="#66e29e"/>
              <path id="Path_8329" data-name="Path 8329" d="M279.078,258.214H274.9a.568.568,0,0,1-.566-.566h0a.568.568,0,0,1,.566-.566h4.178a.568.568,0,0,1,.566.566h0A.568.568,0,0,1,279.078,258.214Z" transform="translate(-238.157 -257.081)" fill="#80aeff"/>
            </g>
            <g id="Group_3263" data-name="Group 3263" transform="translate(0 14.289)">
              <path id="Path_8330" data-name="Path 8330" d="M189.352,289.517H169.231a.568.568,0,0,1-.566-.566h0a.568.568,0,0,1,.566-.566h20.121a.568.568,0,0,1,.566.566h0A.568.568,0,0,1,189.352,289.517Z" transform="translate(-168.665 -288.384)" fill="#66e29e"/>
              <path id="Path_8331" data-name="Path 8331" d="M248.994,289.517H237a.568.568,0,0,1-.566-.566h0a.568.568,0,0,1,.566-.566h12a.568.568,0,0,1,.566.566h0A.568.568,0,0,1,248.994,289.517Z" transform="translate(-213.23 -288.384)" fill="#80aeff"/>
            </g>
            <g id="Group_3264" data-name="Group 3264" transform="translate(0 7.145)">
              <path id="Path_8332" data-name="Path 8332" d="M176.59,268.648h-7.359a.568.568,0,0,1-.566-.566h0a.568.568,0,0,1,.566-.566h7.359a.568.568,0,0,1,.566.566h0A.568.568,0,0,1,176.59,268.648Z" transform="translate(-168.665 -267.516)" fill="#80aeff"/>
              <path id="Path_8333" data-name="Path 8333" d="M209.774,268.648H196.762a.568.568,0,0,1-.566-.566h0a.568.568,0,0,1,.566-.566h13.012a.568.568,0,0,1,.566.566h0A.568.568,0,0,1,209.774,268.648Z" transform="translate(-186.771 -267.516)" fill="#66e29e"/>
            </g>
            <g id="Group_3265" data-name="Group 3265">
              <path id="Path_8334" data-name="Path 8334" d="M182.648,247.78H169.231a.568.568,0,0,1-.566-.566h0a.568.568,0,0,1,.566-.566h13.417a.568.568,0,0,1,.566.566h0A.568.568,0,0,1,182.648,247.78Z" transform="translate(-168.665 -246.647)" fill="#66e29e"/>
              <path id="Path_8335" data-name="Path 8335" d="M247.927,247.78H216.661a.568.568,0,0,1-.566-.566h0a.568.568,0,0,1,.566-.566h31.266a.568.568,0,0,1,.566.566h0A.568.568,0,0,1,247.927,247.78Z" transform="translate(-199.857 -246.647)" fill="#80aeff"/>
            </g>
            <g id="Group_3266" data-name="Group 3266" transform="translate(0 10.717)">
              <path id="Path_8336" data-name="Path 8336" d="M274.287,279.082h-6.672a.568.568,0,0,1-.566-.566h0a.568.568,0,0,1,.566-.566h6.672a.568.568,0,0,1,.566.566h0A.568.568,0,0,1,274.287,279.082Z" transform="translate(-233.366 -277.95)" fill="#80aeff"/>
              <path id="Path_8337" data-name="Path 8337" d="M200.5,279.082H169.231a.568.568,0,0,1-.566-.566h0a.568.568,0,0,1,.566-.566H200.5a.568.568,0,0,1,.566.566h0A.568.568,0,0,1,200.5,279.082Z" transform="translate(-168.665 -277.95)" fill="#66e29e"/>
            </g>
            <g id="Group_3267" data-name="Group 3267" transform="translate(0 21.433)">
              <path id="Path_8338" data-name="Path 8338" d="M184.462,310.385h-15.23a.568.568,0,0,1-.566-.566h0a.568.568,0,0,1,.566-.566h15.23a.568.568,0,0,1,.566.566h0A.568.568,0,0,1,184.462,310.385Z" transform="translate(-168.665 -309.253)" fill="#66e29e"/>
              <path id="Path_8339" data-name="Path 8339" d="M236.8,310.385h-15.23a.568.568,0,0,1-.566-.566h0a.568.568,0,0,1,.566-.566H236.8a.568.568,0,0,1,.566.566h0A.568.568,0,0,1,236.8,310.385Z" transform="translate(-203.083 -309.253)" fill="#66e29e"/>
              <path id="Path_8340" data-name="Path 8340" d="M279.078,310.385H274.9a.568.568,0,0,1-.566-.566h0a.568.568,0,0,1,.566-.566h4.178a.568.568,0,0,1,.566.566h0A.568.568,0,0,1,279.078,310.385Z" transform="translate(-238.157 -309.253)" fill="#80aeff"/>
            </g>
            <g id="Group_3268" data-name="Group 3268" transform="translate(0 32.15)">
              <path id="Path_8341" data-name="Path 8341" d="M189.352,341.689H169.231a.568.568,0,0,1-.566-.566h0a.568.568,0,0,1,.566-.566h20.121a.568.568,0,0,1,.566.566h0A.568.568,0,0,1,189.352,341.689Z" transform="translate(-168.665 -340.556)" fill="#66e29e"/>
              <path id="Path_8342" data-name="Path 8342" d="M248.994,341.689H237a.568.568,0,0,1-.566-.566h0a.568.568,0,0,1,.566-.566h12a.568.568,0,0,1,.566.566h0A.568.568,0,0,1,248.994,341.689Z" transform="translate(-213.23 -340.556)" fill="#80aeff"/>
            </g>
            <g id="Group_3269" data-name="Group 3269" transform="translate(0 25.006)">
              <path id="Path_8343" data-name="Path 8343" d="M176.59,320.819h-7.359a.568.568,0,0,1-.566-.566h0a.568.568,0,0,1,.566-.566h7.359a.568.568,0,0,1,.566.566h0A.568.568,0,0,1,176.59,320.819Z" transform="translate(-168.665 -319.687)" fill="#80aeff"/>
              <path id="Path_8344" data-name="Path 8344" d="M209.774,320.819H196.762a.568.568,0,0,1-.566-.566h0a.568.568,0,0,1,.566-.566h13.012a.568.568,0,0,1,.566.566h0A.568.568,0,0,1,209.774,320.819Z" transform="translate(-186.771 -319.687)" fill="#66e29e"/>
            </g>
            <g id="Group_3270" data-name="Group 3270" transform="translate(0 17.861)">
              <path id="Path_8345" data-name="Path 8345" d="M182.648,299.952H169.231a.568.568,0,0,1-.566-.566h0a.568.568,0,0,1,.566-.566h13.417a.568.568,0,0,1,.566.566h0A.568.568,0,0,1,182.648,299.952Z" transform="translate(-168.665 -298.819)" fill="#66e29e"/>
              <rect id="Rectangle_759" data-name="Rectangle 759" width="29.246" height="1.133" rx="0.566" transform="translate(16.238)" fill="#80aeff"/>
            </g>
            <g id="Group_3271" data-name="Group 3271" transform="translate(0 28.578)">
              <path id="Path_8346" data-name="Path 8346" d="M274.287,331.254h-6.672a.568.568,0,0,1-.566-.566h0a.568.568,0,0,1,.566-.566h6.672a.568.568,0,0,1,.566.566h0A.568.568,0,0,1,274.287,331.254Z" transform="translate(-233.366 -330.122)" fill="#80aeff"/>
              <path id="Path_8347" data-name="Path 8347" d="M200.5,331.254H169.231a.568.568,0,0,1-.566-.566h0a.568.568,0,0,1,.566-.566H200.5a.568.568,0,0,1,.566.566h0A.568.568,0,0,1,200.5,331.254Z" transform="translate(-168.665 -330.122)" fill="#66e29e"/>
            </g>
          </g>
        </g>
        <path id="Path_8348" data-name="Path 8348" d="M202.832,372.114H84.636l23.016-17.927h72.163Z" transform="translate(-79.529 -313.493)" fill="#b3d6ff"/>
        <g id="Group_3274" data-name="Group 3274" transform="translate(0 39.419)">
          <line id="Line_171" data-name="Line 171" y1="2.393" x2="3.176" transform="translate(22.926)" fill="none" stroke="#8ab7ce" stroke-linecap="round" stroke-miterlimit="10" stroke-width="0.998"/>
          <line id="Line_172" data-name="Line 172" y1="7.736" x2="10.269" transform="translate(11.507 3.259)" fill="none" stroke="#8ab7ce" stroke-linecap="round" stroke-miterlimit="10" stroke-width="0.998"/>
          <path id="Path_8349" data-name="Path 8349" d="M86.993,405.238H72.005a2.284,2.284,0,0,1-1.374-4.108l3.289-2.479" transform="translate(-69.717 -382.153)" fill="none" stroke="#8ab7ce" stroke-linecap="round" stroke-miterlimit="10" stroke-width="0.998"/>
          <line id="Line_173" data-name="Line 173" x1="52.431" transform="translate(28.124 23.085)" fill="none" stroke="#8ab7ce" stroke-linecap="round" stroke-miterlimit="10" stroke-width="0.998"/>
          <line id="Line_174" data-name="Line 174" x1="25.324" transform="translate(90.045 23.085)" fill="none" stroke="#8ab7ce" stroke-linecap="round" stroke-miterlimit="10" stroke-width="0.998"/>
          <line id="Line_175" data-name="Line 175" x2="4.534" y2="3.416" transform="translate(114.464 9.501)" fill="none" stroke="#8ab7ce" stroke-linecap="round" stroke-miterlimit="10" stroke-width="0.998"/>
          <line id="Line_176" data-name="Line 176" x2="8.674" y2="6.535" transform="translate(104.891 2.289)" fill="none" stroke="#8ab7ce" stroke-linecap="round" stroke-miterlimit="10" stroke-width="0.998"/>
        </g>
        <g id="Group_3275" data-name="Group 3275" transform="translate(22.655 41.249)">
          <path id="Path_8350" data-name="Path 8350" d="M165.832,356.932H161.9l1.433-1.125h3.756Z" transform="translate(-152.998 -355.807)" fill="#6e89a0"/>
          <path id="Path_8351" data-name="Path 8351" d="M158.47,362.683h-4.349l1.671-1.312h4.143Z" transform="translate(-147.88 -359.466)" fill="#6e89a0"/>
          <path id="Path_8352" data-name="Path 8352" d="M177.827,362.683h-4.349l1.357-1.312h4.143Z" transform="translate(-160.61 -359.466)" fill="#6e89a0"/>
          <path id="Path_8353" data-name="Path 8353" d="M197.184,362.683h-4.349l1.044-1.312h4.143Z" transform="translate(-173.34 -359.466)" fill="#6e89a0"/>
          <path id="Path_8354" data-name="Path 8354" d="M216.541,362.683h-4.349l.73-1.312h4.143Z" transform="translate(-186.07 -359.466)" fill="#6e89a0"/>
          <path id="Path_8355" data-name="Path 8355" d="M235.9,362.683h-4.349l.417-1.312h4.143Z" transform="translate(-198.8 -359.466)" fill="#6e89a0"/>
          <path id="Path_8356" data-name="Path 8356" d="M255.255,362.683h-4.349l.1-1.312h4.143Z" transform="translate(-211.53 -359.466)" fill="#6e89a0"/>
          <path id="Path_8357" data-name="Path 8357" d="M274.207,362.683h-4.349l-.211-1.312h4.143Z" transform="translate(-223.855 -359.466)" fill="#6e89a0"/>
          <path id="Path_8358" data-name="Path 8358" d="M292.961,362.683h-4.349l-.524-1.312h4.143Z" transform="translate(-235.983 -359.466)" fill="#6e89a0"/>
          <path id="Path_8359" data-name="Path 8359" d="M311.716,362.683h-4.349l-.838-1.312h4.143Z" transform="translate(-248.11 -359.466)" fill="#6e89a0"/>
          <path id="Path_8360" data-name="Path 8360" d="M330.47,362.683h-4.349l-1.152-1.312h4.143Z" transform="translate(-260.238 -359.466)" fill="#6e89a0"/>
          <path id="Path_8361" data-name="Path 8361" d="M349.225,362.683h-4.349l-1.465-1.312h4.143Z" transform="translate(-272.365 -359.466)" fill="#6e89a0"/>
          <path id="Path_8362" data-name="Path 8362" d="M150.653,368.687H145.96l1.939-1.522h4.454Z" transform="translate(-142.513 -363.276)" fill="#6e89a0"/>
          <path id="Path_8363" data-name="Path 8363" d="M171.541,368.687h-4.693l1.575-1.522h4.454Z" transform="translate(-156.25 -363.276)" fill="#6e89a0"/>
          <path id="Path_8364" data-name="Path 8364" d="M192.43,368.687h-4.693l1.211-1.522H193.4Z" transform="translate(-169.987 -363.276)" fill="#6e89a0"/>
          <path id="Path_8365" data-name="Path 8365" d="M213.319,368.687h-4.693l.847-1.522h4.454Z" transform="translate(-183.725 -363.276)" fill="#6e89a0"/>
          <path id="Path_8366" data-name="Path 8366" d="M234.208,368.687h-4.693l.483-1.522h4.454Z" transform="translate(-197.462 -363.276)" fill="#6e89a0"/>
          <path id="Path_8367" data-name="Path 8367" d="M255.1,368.687H250.4l.119-1.522h4.454Z" transform="translate(-211.199 -363.276)" fill="#6e89a0"/>
          <path id="Path_8368" data-name="Path 8368" d="M275.515,368.687h-4.693l-.244-1.522h4.454Z" transform="translate(-224.467 -363.276)" fill="#6e89a0"/>
          <path id="Path_8369" data-name="Path 8369" d="M295.705,368.687h-4.693l-.608-1.522h4.454Z" transform="translate(-237.506 -363.276)" fill="#6e89a0"/>
          <path id="Path_8370" data-name="Path 8370" d="M315.895,368.687H311.2l-.972-1.522h4.454Z" transform="translate(-250.544 -363.276)" fill="#6e89a0"/>
          <path id="Path_8371" data-name="Path 8371" d="M336.085,368.687h-4.693l-1.336-1.522h4.454Z" transform="translate(-263.582 -363.276)" fill="#6e89a0"/>
          <path id="Path_8372" data-name="Path 8372" d="M356.275,368.687h-4.693l-1.7-1.522h4.454Z" transform="translate(-276.621 -363.276)" fill="#6e89a0"/>
          <path id="Path_8373" data-name="Path 8373" d="M141.008,376.054h-5.118l2.295-1.8h4.835Z" transform="translate(-135.891 -367.938)" fill="#6e89a0"/>
          <path id="Path_8374" data-name="Path 8374" d="M163.787,376.054h-5.118l1.864-1.8h4.835Z" transform="translate(-150.871 -367.938)" fill="#6e89a0"/>
          <path id="Path_8375" data-name="Path 8375" d="M225.435,376.054H181.448l1.433-1.8h41.558Z" transform="translate(-165.851 -367.938)" fill="#6e89a0"/>
          <path id="Path_8376" data-name="Path 8376" d="M321.026,376.054h-5.118l-1.151-1.8h4.835Z" transform="translate(-253.522 -367.938)" fill="#6e89a0"/>
          <path id="Path_8377" data-name="Path 8377" d="M342.977,376.054h-5.118l-1.581-1.8h4.835Z" transform="translate(-267.674 -367.938)" fill="#6e89a0"/>
          <path id="Path_8378" data-name="Path 8378" d="M364.928,376.054H359.81l-2.012-1.8h4.835Z" transform="translate(-281.827 -367.938)" fill="#6e89a0"/>
          <path id="Path_8379" data-name="Path 8379" d="M189.056,356.932h-3.929l1.084-1.125h3.756Z" transform="translate(-168.271 -355.807)" fill="#6e89a0"/>
          <path id="Path_8380" data-name="Path 8380" d="M205.449,356.932H201.52l.838-1.125h3.756Z" transform="translate(-179.052 -355.807)" fill="#6e89a0"/>
          <path id="Path_8381" data-name="Path 8381" d="M221.842,356.932h-3.929l.591-1.125h3.756Z" transform="translate(-189.833 -355.807)" fill="#6e89a0"/>
          <path id="Path_8382" data-name="Path 8382" d="M238.235,356.932h-3.929l.345-1.125h3.756Z" transform="translate(-200.614 -355.807)" fill="#6e89a0"/>
          <path id="Path_8383" data-name="Path 8383" d="M254.629,356.932H250.7l.1-1.125h3.756Z" transform="translate(-211.395 -355.807)" fill="#6e89a0"/>
          <path id="Path_8384" data-name="Path 8384" d="M270.738,356.932h-3.929l-.148-1.125h3.756Z" transform="translate(-221.891 -355.807)" fill="#6e89a0"/>
          <path id="Path_8385" data-name="Path 8385" d="M287.188,356.932H283.26l-.4-1.125h3.756Z" transform="translate(-232.543 -355.807)" fill="#6e89a0"/>
          <path id="Path_8386" data-name="Path 8386" d="M312.395,356.932h-3.929l-.793-1.125h3.756Z" transform="translate(-248.863 -355.807)" fill="#6e89a0"/>
          <path id="Path_8387" data-name="Path 8387" d="M327.519,356.932H323.59l-1.027-1.125h3.756Z" transform="translate(-258.655 -355.807)" fill="#6e89a0"/>
          <path id="Path_8388" data-name="Path 8388" d="M342.643,356.932h-3.929l-1.261-1.125h3.756Z" transform="translate(-268.447 -355.807)" fill="#6e89a0"/>
          <path id="Path_8389" data-name="Path 8389" d="M244.848,389.819H217.9l2.127-5.013h22.7Z" transform="translate(-189.823 -374.878)" fill="#85aed6"/>
        </g>
        <path id="Rectangle_760" data-name="Rectangle 760" d="M0,0H118.2a0,0,0,0,1,0,0V0a1.975,1.975,0,0,1-1.975,1.975H1.975A1.975,1.975,0,0,1,0,0V0A0,0,0,0,1,0,0Z" transform="translate(5.108 58.621)" fill="#96c1ea"/>
      </g>
    </g>
    <g id="Group_3278" data-name="Group 3278" transform="translate(124.488 1697.184)" opacity="0.85">
      <rect id="Rectangle_761" data-name="Rectangle 761" width="31.067" height="52.64" rx="2.691" transform="translate(0)" fill="#96a8ea"/>
      <rect id="Rectangle_762" data-name="Rectangle 762" width="28.675" height="44.036" transform="translate(1.196 2.026)" fill="#c0e0fc"/>
      <path id="Path_8390" data-name="Path 8390" d="M258.031,307a1.75,1.75,0,1,1-1.75-1.75A1.75,1.75,0,0,1,258.031,307Z" transform="translate(-240.747 -257.553)" fill="#c0e0fc"/>
    </g>
    <path id="Path_8407" data-name="Path 8407" d="M405.873,341.46a.9.9,0,1,1-.9-.9A.9.9,0,0,1,405.873,341.46Z" transform="translate(-214.599 1416.412)" fill="none" stroke="#96c1ea" stroke-miterlimit="10" stroke-width="1.331"/>
    <path id="Path_8408" data-name="Path 8408" d="M367.722,170.109a.9.9,0,1,1-.9-.9A.9.9,0,0,1,367.722,170.109Z" transform="translate(-189.51 1529.101)" fill="none" stroke="#96c1ea" stroke-miterlimit="10" stroke-width="1.331"/>
    <path id="Path_8409" data-name="Path 8409" d="M389.5,235.033a.586.586,0,1,1-.586-.586A.586.586,0,0,1,389.5,235.033Z" transform="translate(-204.249 1486.194)" fill="#f78c57"/>
    <circle id="Ellipse_392" data-name="Ellipse 392" cx="0.586" cy="0.586" r="0.586" transform="translate(94.508 1754.543)" fill="#f78c57"/>
    <circle id="Ellipse_393" data-name="Ellipse 393" cx="0.586" cy="0.586" r="0.586" transform="translate(101.816 1698.624)" fill="#f78c57"/>
    <path id="Path_8410" data-name="Path 8410" d="M378.084,348.019a.586.586,0,1,1-.586-.586A.586.586,0,0,1,378.084,348.019Z" transform="translate(-196.742 1411.89)" fill="#f78c57"/>
    <path id="Path_8411" data-name="Path 8411" d="M192.636,198.78a.9.9,0,1,1-.9-.9A.9.9,0,0,1,192.636,198.78Z" transform="translate(-74.365 1510.245)" fill="none" stroke="#96c1ea" stroke-miterlimit="10" stroke-width="1.331"/>
    <path id="Path_8412" data-name="Path 8412" d="M99.856,340.473a.9.9,0,1,1-.9-.9A.9.9,0,0,1,99.856,340.473Z" transform="translate(-13.349 1417.062)" fill="none" stroke="#96c1ea" stroke-miterlimit="10" stroke-width="1.331"/>
    <path id="Path_8413" data-name="Path 8413" d="M130.22,170.109a.9.9,0,1,1-.9-.9A.9.9,0,0,1,130.22,170.109Z" transform="translate(-33.317 1529.101)" fill="none" stroke="#96c1ea" stroke-miterlimit="10" stroke-width="1.331"/>
  </g>
</svg>
