<svg width="41" height="40" viewBox="0 0 41 40" fill="none" xmlns="http://www.w3.org/2000/svg">
<g clip-path="url(#clip0_2551_1495)">
<path d="M5.83398 9.1665C5.83398 7.7865 6.95398 6.6665 8.33398 6.6665C9.71398 6.6665 10.834 7.7865 10.834 9.1665C10.834 10.5465 9.71398 11.6665 8.33398 11.6665C6.95398 11.6665 5.83398 10.5465 5.83398 9.1665ZM15.0007 11.6665C16.3807 11.6665 17.5007 10.5465 17.5007 9.1665C17.5007 7.7865 16.3807 6.6665 15.0007 6.6665C13.6207 6.6665 12.5007 7.7865 12.5007 9.1665C12.5007 10.5465 13.6207 11.6665 15.0007 11.6665ZM40.834 9.99984V29.9998C40.834 34.5948 37.0956 38.3332 32.5007 38.3332H9.16732C4.57232 38.3332 0.833984 34.5948 0.833984 29.9998V9.99984C0.833984 5.40484 4.57232 1.6665 9.16732 1.6665H32.5007C37.0956 1.6665 40.834 5.40484 40.834 9.99984ZM4.16732 9.99984V13.3332H37.5006V9.99984C37.5006 7.24317 35.2573 4.99984 32.5007 4.99984H9.16732C6.41065 4.99984 4.16732 7.24317 4.16732 9.99984ZM37.5006 29.9998V16.6665H4.16732V29.9998C4.16732 32.7565 6.41065 34.9998 9.16732 34.9998H32.5007C35.2573 34.9998 37.5006 32.7565 37.5006 29.9998ZM27.5007 19.9998C26.5807 19.9998 25.834 20.7465 25.834 21.6665V29.9998C25.834 30.9198 26.5807 31.6665 27.5007 31.6665C28.4207 31.6665 29.1673 30.9198 29.1673 29.9998V21.6665C29.1673 20.7465 28.4207 19.9998 27.5007 19.9998ZM20.834 19.9998C19.914 19.9998 19.1673 20.7465 19.1673 21.6665V26.6665C19.1673 27.5848 18.419 28.3332 17.5007 28.3332C16.5823 28.3332 15.834 27.5848 15.834 26.6665V21.6665C15.834 20.7465 15.0873 19.9998 14.1673 19.9998C13.2473 19.9998 12.5007 20.7465 12.5007 21.6665V26.6665C12.5007 29.4232 14.744 31.6665 17.5007 31.6665C20.2573 31.6665 22.5007 29.4232 22.5007 26.6665V21.6665C22.5007 20.7465 21.754 19.9998 20.834 19.9998Z" fill="#7552F3"/>
</g>
<defs>
<clipPath id="clip0_2551_1495">
<rect width="40" height="40" fill="white" transform="translate(0.833984)"/>
</clipPath>
</defs>
</svg>
